%YAML 1.1
%TAG !u! tag:unity3d.com,2011:
--- !u!114 &11400000
MonoBehaviour:
  m_ObjectHideFlags: 0
  m_CorrespondingSourceObject: {fileID: 0}
  m_PrefabInternal: {fileID: 0}
  m_GameObject: {fileID: 0}
  m_Enabled: 1
  m_EditorHideFlags: 0
  m_Script: {fileID: 11500000, guid: 22d419c0d1782434e84a3e1ef3da5309, type: 3}
  m_Name: Lost Drain
  m_EditorClassIdentifier: 
  actions:
  - {fileID: 11400000, guid: 569ce45178bb67b418783a1950f67fe0, type: 2}
  transitions:
  - decision: {fileID: 11400000, guid: dff905b455f6b1447916fc6a7531e9ec, type: 2}
    trueState: {fileID: 11400000, guid: dcc68d08bdd12434599d4159dcbe8822, type: 2}
    falseState: {fileID: 11400000, guid: efceb56d9d1f6cf44a63711436545d1d, type: 2}
  sceneGizmoColor: {r: 0, g: 1, b: 0, a: 1}
  enemyAnimator: {fileID: 0}
